@startuml

actor Client

usecase (Reserver salle de repetition) as ResSalle
usecase (Reserver materiel) as ResMateriel
usecase (Annuler reservation) as AnnulleRes
usecase (Verifier disponibilité) as incDispo

(ResSalle) ..> (incDispo) : include
(ResMateriel) ..> (incDispo) : include


Client --> (ResSalle)
Client --> (ResMateriel)
Client --> (AnnulleRes)

actor Admin

usecase (Gerer la salle / ajout - suppr - modif) as gestion

Admin --> (gestion)

@enduml